Lab3-FSM/task4/top.vcd
$version Generated by VerilatedVcd $end
$timescale 1ps $end

 $scope module TOP $end
  $var wire 16 0 N [15:0] $end
  $var wire  1 - clk $end
  $var wire  8 1 data_out [7:0] $end
  $var wire  1 / rst $end
  $var wire  1 . trigger $end
  $scope module top $end
   $var wire 32 7 C_WIDTH [31:0] $end
   $var wire 32 6 D_WIDTH [31:0] $end
   $var wire 16 0 N [15:0] $end
   $var wire  1 - clk $end
   $var wire  1 ) cmd_delay $end
   $var wire  1 ( cmd_seq $end
   $var wire  8 1 data_out [7:0] $end
   $var wire  1 2 mux_val $end
   $var wire  1 * random_num $end
   $var wire  1 / rst $end
   $var wire  1 # tick_time $end
   $var wire  1 $ time_out $end
   $var wire  1 . trigger $end
   $scope module clocktick $end
    $var wire 16 0 N [15:0] $end
    $var wire 32 7 WIDTH [31:0] $end
    $var wire  1 - clk $end
    $var wire 16 % count [15:0] $end
    $var wire  1 ( en $end
    $var wire  1 / rst $end
    $var wire  1 # tick $end
   $upscope $end
   $scope module delay $end
    $var wire 32 8 WIDTH [31:0] $end
    $var wire  1 - clk $end
    $var wire 10 & count [9:0] $end
    $var wire 32 ' current_state [31:0] $end
    $var wire 10 + n [9:0] $end
    $var wire 32 3 next_state [31:0] $end
    $var wire  1 / rst $end
    $var wire  1 $ time_out $end
    $var wire  1 ) trigger $end
   $upscope $end
   $scope module f1_lights $end
    $var wire  1 - clk $end
    $var wire  1 ) cmd_delay $end
    $var wire  1 ( cmd_seq $end
    $var wire 32 4 current_state [31:0] $end
    $var wire  8 1 data_out [7:0] $end
    $var wire  1 2 en $end
    $var wire 32 5 next_state [31:0] $end
    $var wire  1 / rst $end
    $var wire  1 . trigger $end
   $upscope $end
   $scope module lfsr $end
    $var wire  1 - clk $end
    $var wire  7 , data_out [7:1] $end
    $var wire  1 / rst $end
    $var wire  7 , sreg [7:1] $end
   $upscope $end
  $upscope $end
 $upscope $end
$enddefinitions $end


#0
0#
0$
b0000000000000000 %
b0000000000 &
b00000000000000000000000000000000 '
0(
0)
0*
b0000000000 +
b0000000 ,
1-
0.
0/
b0000000000000000 0
b00000000 1
02
b00000000000000000000000000000000 3
b00000000000000000000000000000000 4
b00000000000000000000000000000000 5
b00000000000000000000000000001000 6
b00000000000000000000000000010000 7
b00000000000000000000000000001010 8
#1
1(
0-
#2
1#
b1111111111 &
1-
1/
b0000000000011000 0
12
b00000000000000000000000000000001 5
#3
1*
b0000000001 +
b0000001 ,
0-
#4
0#
b0000000000011000 %
b0000000000 &
1-
02
b00000000000000000000000000000000 5
#5
0-
#6
1-
0/
#7
0-
#8
b0000000000010111 %
0*
b0000000000 +
b0000010 ,
1-
#9
0-
#10
b0000000000010110 %
b1111111111 &
b0000100 ,
1-
#11
0-
#12
b0000000000010101 %
b1111111110 &
1*
b0000000001 +
b0001001 ,
1-
#13
0-
#14
b0000000000010100 %
b1111111101 &
0*
b0000000000 +
b0010010 ,
1-
#15
0-
#16
b0000000000010011 %
b1111111100 &
b0100100 ,
1-
#17
0-
#18
b0000000000010010 %
b1111111011 &
1*
b0000000001 +
b1001001 ,
1-
#19
0-
#20
b0000000000010001 %
b1111111010 &
b0010011 ,
1-
#21
0-
#22
b0000000000010000 %
b1111111001 &
0*
b0000000000 +
b0100110 ,
1-
#23
0-
#24
b0000000000001111 %
b1111111000 &
1*
b0000000001 +
b1001101 ,
1-
#25
0-
#26
b0000000000001110 %
b1111110111 &
0*
b0000000000 +
b0011010 ,
1-
#27
0-
#28
b0000000000001101 %
b1111110110 &
b0110100 ,
1-
#29
0-
#30
b0000000000001100 %
b1111110101 &
1*
b0000000001 +
b1101001 ,
1-
#31
0-
#32
b0000000000001011 %
b1111110100 &
b1010011 ,
1-
#33
0-
#34
b0000000000001010 %
b1111110011 &
b0100111 ,
1-
#35
0-
#36
b0000000000001001 %
b1111110010 &
b1001111 ,
1-
#37
0-
#38
b0000000000001000 %
b1111110001 &
0*
b0000000000 +
b0011110 ,
1-
#39
0-
#40
b0000000000000111 %
b1111110000 &
1*
b0000000001 +
b0111101 ,
1-
#41
0-
#42
b0000000000000110 %
b1111101111 &
b1111011 ,
1-
#43
0-
#44
b0000000000000101 %
b1111101110 &
b1110111 ,
1-
#45
0-
#46
b0000000000000100 %
b1111101101 &
0*
b0000000000 +
b1101110 ,
1-
#47
0-
#48
b0000000000000011 %
b1111101100 &
b1011100 ,
1-
#49
0-
#50
b0000000000000010 %
b1111101011 &
b0111000 ,
1-
#51
0-
#52
b0000000000000001 %
b1111101010 &
b1110000 ,
1-
#53
0-
#54
b0000000000000000 %
b1111101001 &
1*
b0000000001 +
b1100001 ,
1-
#55
0-
#56
1#
b0000000000011000 %
b1111101000 &
b1000011 ,
1-
12
b00000000000000000000000000000001 5
#57
0-
#58
0#
b0000000000010111 %
b1111100111 &
b0000111 ,
1-
02
b00000000000000000000000000000000 5
#59
0-
#60
b0000000000010110 %
b1111100110 &
b0001111 ,
1-
#61
0-
#62
b0000000000010101 %
b1111100101 &
b0011111 ,
1-
#63
0-
#64
b0000000000010100 %
b1111100100 &
b0111111 ,
1-
#65
0-
#66
b0000000000010011 %
b1111100011 &
b1111111 ,
1-
#67
0-
#68
b0000000000010010 %
b1111100010 &
0*
b0000000000 +
b1111110 ,
1-
#69
0-
#70
b0000000000010001 %
b1111100001 &
b1111100 ,
1-
#71
0-
#72
b0000000000010000 %
b1111100000 &
b1111000 ,
1-
#73
0-
#74
b0000000000001111 %
b1111011111 &
1*
b0000000001 +
b1110001 ,
1-
#75
0-
#76
b0000000000001110 %
b1111011110 &
b1100011 ,
1-
#77
0-
#78
b0000000000001101 %
b1111011101 &
b1000111 ,
1-
#79
0-
#80
b0000000000001100 %
b1111011100 &
0*
b0000000000 +
b0001110 ,
1-
#81
0-
#82
b0000000000001011 %
b1111011011 &
1*
b0000000001 +
b0011101 ,
1-
#83
0-
#84
b0000000000001010 %
b1111011010 &
b0111011 ,
1-
#85
0-
#86
b0000000000001001 %
b1111011001 &
0*
b0000000000 +
b1110110 ,
1-
#87
0-
#88
b0000000000001000 %
b1111011000 &
b1101100 ,
1-
#89
0-
#90
b0000000000000111 %
b1111010111 &
b1011000 ,
1-
#91
0-
#92
b0000000000000110 %
b1111010110 &
1*
b0000000001 +
b0110001 ,
1-
#93
0-
#94
b0000000000000101 %
b1111010101 &
0*
b0000000000 +
b1100010 ,
1-
#95
0-
#96
b0000000000000100 %
b1111010100 &
1*
b0000000001 +
b1000101 ,
1-
#97
0-
#98
b0000000000000011 %
b1111010011 &
0*
b0000000000 +
b0001010 ,
1-
#99
0-
#100
b0000000000000010 %
b1111010010 &
b0010100 ,
1-
#101
0-
#102
b0000000000000001 %
b1111010001 &
1*
b0000000001 +
b0101001 ,
1-
#103
0-
#104
b0000000000000000 %
b1111010000 &
0*
b0000000000 +
b1010010 ,
1-
#105
0-
#106
1#
b0000000000011000 %
b1111001111 &
1*
b0000000001 +
b0100101 ,
1-
12
b00000000000000000000000000000001 5
#107
0-
#108
0#
b0000000000010111 %
b1111001110 &
b1001011 ,
1-
02
b00000000000000000000000000000000 5
#109
0-
#110
b0000000000010110 %
b1111001101 &
b0010111 ,
1-
#111
0-
#112
b0000000000010101 %
b1111001100 &
b0101111 ,
1-
1.
#113
0-
#114
b0000000000010100 %
b1111001011 &
b1011111 ,
1-
0.
#115
0-
#116
b0000000000010011 %
b1111001010 &
0*
b0000000000 +
b0111110 ,
1-
#117
0-
#118
b0000000000010010 %
b1111001001 &
1*
b0000000001 +
b1111101 ,
1-
#119
0-
#120
b0000000000010001 %
b1111001000 &
0*
b0000000000 +
b1111010 ,
1-
#121
0-
#122
b0000000000010000 %
b1111000111 &
1*
b0000000001 +
b1110101 ,
1-
#123
0-
#124
b0000000000001111 %
b1111000110 &
0*
b0000000000 +
b1101010 ,
1-
#125
0-
#126
b0000000000001110 %
b1111000101 &
1*
b0000000001 +
b1010101 ,
1-
#127
0-
#128
b0000000000001101 %
b1111000100 &
0*
b0000000000 +
b0101010 ,
1-
#129
0-
#130
b0000000000001100 %
b1111000011 &
b1010100 ,
1-
#131
0-
#132
b0000000000001011 %
b1111000010 &
b0101000 ,
1-
#133
0-
#134
b0000000000001010 %
b1111000001 &
b1010000 ,
1-
#135
0-
#136
b0000000000001001 %
b1111000000 &
1*
b0000000001 +
b0100001 ,
1-
#137
0-
#138
b0000000000001000 %
b1110111111 &
0*
b0000000000 +
b1000010 ,
1-
#139
0-
#140
b0000000000000111 %
b1110111110 &
1*
b0000000001 +
b0000101 ,
1-
#141
0-
#142
b0000000000000110 %
b1110111101 &
b0001011 ,
1-
#143
0-
#144
b0000000000000101 %
b1110111100 &
0*
b0000000000 +
b0010110 ,
1-
#145
0-
#146
b0000000000000100 %
b1110111011 &
1*
b0000000001 +
b0101101 ,
1-
#147
0-
#148
b0000000000000011 %
b1110111010 &
b1011011 ,
1-
#149
0-
#150
b0000000000000010 %
b1110111001 &
b0110111 ,
1-
#151
0-
#152
b0000000000000001 %
b1110111000 &
b1101111 ,
1-
#153
0-
#154
b0000000000000000 %
b1110110111 &
0*
b0000000000 +
b1011110 ,
1-
#155
0-
#156
1#
b0000000000011000 %
b1110110110 &
b0111100 ,
1-
12
b00000000000000000000000000000001 5
#157
0-
#158
0#
b0000000000010111 %
b1110110101 &
1*
b0000000001 +
b1111001 ,
1-
02
b00000000000000000000000000000000 5
#159
0-
#160
b0000000000010110 %
b1110110100 &
b1110011 ,
1-
#161
0-
#162
b0000000000010101 %
b1110110011 &
b1100111 ,
1-
#163
0-
#164
b0000000000010100 %
b1110110010 &
0*
b0000000000 +
b1001110 ,
1-
#165
0-
#166
b0000000000010011 %
b1110110001 &
b0011100 ,
1-
#167
0-
#168
b0000000000010010 %
b1110110000 &
1*
b0000000001 +
b0111001 ,
1-
#169
0-
#170
b0000000000010001 %
b1110101111 &
0*
b0000000000 +
b1110010 ,
1-
#171
0-
#172
b0000000000010000 %
b1110101110 &
1*
b0000000001 +
b1100101 ,
1-
#173
0-
#174
b0000000000001111 %
b1110101101 &
0*
b0000000000 +
b1001010 ,
1-
#175
0-
#176
b0000000000001110 %
b1110101100 &
1*
b0000000001 +
b0010101 ,
1-
#177
0-
#178
b0000000000001101 %
b1110101011 &
b0101011 ,
1-
#179
0-
#180
b0000000000001100 %
b1110101010 &
0*
b0000000000 +
b1010110 ,
1-
#181
0-
#182
b0000000000001011 %
b1110101001 &
b0101100 ,
1-
#183
0-
#184
b0000000000001010 %
b1110101000 &
1*
b0000000001 +
b1011001 ,
1-
#185
0-
#186
b0000000000001001 %
b1110100111 &
b0110011 ,
1-
#187
0-
#188
b0000000000001000 %
b1110100110 &
0*
b0000000000 +
b1100110 ,
1-
#189
0-
#190
b0000000000000111 %
b1110100101 &
b1001100 ,
1-
#191
0-
#192
b0000000000000110 %
b1110100100 &
b0011000 ,
1-
#193
0-
#194
b0000000000000101 %
b1110100011 &
b0110000 ,
1-
#195
0-
#196
b0000000000000100 %
b1110100010 &
b1100000 ,
1-
#197
0-
#198
b0000000000000011 %
b1110100001 &
1*
b0000000001 +
b1000001 ,
1-
#199
0-
#200
b0000000000000010 %
b1110100000 &
b0000011 ,
1-
#201
0-
#202
b0000000000000001 %
b1110011111 &
0*
b0000000000 +
b0000110 ,
1-
#203
0-
#204
b0000000000000000 %
b1110011110 &
1*
b0000000001 +
b0001101 ,
1-
#205
0-
#206
1#
b0000000000011000 %
b1110011101 &
b0011011 ,
1-
12
b00000000000000000000000000000001 5
#207
0-
#208
0#
b0000000000010111 %
b1110011100 &
0*
b0000000000 +
b0110110 ,
1-
02
b00000000000000000000000000000000 5
#209
0-
#210
b0000000000010110 %
b1110011011 &
1*
b0000000001 +
b1101101 ,
1-
#211
0-
#212
b0000000000010101 %
b1110011010 &
0*
b0000000000 +
b1011010 ,
1-
#213
0-
#214
b0000000000010100 %
b1110011001 &
1*
b0000000001 +
b0110101 ,
1-
#215
0-
#216
b0000000000010011 %
b1110011000 &
b1101011 ,
1-
#217
0-
#218
b0000000000010010 %
b1110010111 &
b1010111 ,
1-
#219
0-
#220
b0000000000010001 %
b1110010110 &
0*
b0000000000 +
b0101110 ,
1-
#221
0-
#222
b0000000000010000 %
b1110010101 &
1*
b0000000001 +
b1011101 ,
1-
#223
0-
#224
b0000000000001111 %
b1110010100 &
0*
b0000000000 +
b0111010 ,
1-
#225
0-
#226
b0000000000001110 %
b1110010011 &
b1110100 ,
1-
#227
0-
#228
b0000000000001101 %
b1110010010 &
b1101000 ,
1-
#229
0-
#230
b0000000000001100 %
b1110010001 &
1*
b0000000001 +
b1010001 ,
1-
#231
0-
#232
b0000000000001011 %
b1110010000 &
b0100011 ,
1-
#233
0-
#234
b0000000000001010 %
b1110001111 &
0*
b0000000000 +
b1000110 ,
1-
#235
0-
#236
b0000000000001001 %
b1110001110 &
b0001100 ,
1-
#237
0-
#238
b0000000000001000 %
b1110001101 &
1*
b0000000001 +
b0011001 ,
1-
#239
0-
#240
b0000000000000111 %
b1110001100 &
0*
b0000000000 +
b0110010 ,
1-
#241
0-
#242
b0000000000000110 %
b1110001011 &
b1100100 ,
1-
#243
0-
#244
b0000000000000101 %
b1110001010 &
b1001000 ,
1-
#245
0-
#246
b0000000000000100 %
b1110001001 &
1*
b0000000001 +
b0010001 ,
1-
#247
0-
#248
b0000000000000011 %
b1110001000 &
0*
b0000000000 +
b0100010 ,
1-
#249
0-
#250
b0000000000000010 %
b1110000111 &
b1000100 ,
1-
#251
0-
#252
b0000000000000001 %
b1110000110 &
b0001000 ,
1-
#253
0-
#254
b0000000000000000 %
b1110000101 &
b0010000 ,
1-
#255
0-
#256
1#
b0000000000011000 %
b1110000100 &
b0100000 ,
1-
12
b00000000000000000000000000000001 5
#257
0-
#258
0#
b0000000000010111 %
b1110000011 &
b1000000 ,
1-
02
b00000000000000000000000000000000 5
#259
0-
#260
b0000000000010110 %
b1110000010 &
1*
b0000000001 +
b0000001 ,
1-
#261
0-
#262
b0000000000010101 %
b1110000001 &
0*
b0000000000 +
b0000010 ,
1-
#263
0-
#264
b0000000000010100 %
b1110000000 &
b0000100 ,
1-
1.
#265
0-
#266
b0000000000010011 %
b1101111111 &
1*
b0000000001 +
b0001001 ,
1-
0.
#267
0-
#268
b0000000000010010 %
b1101111110 &
0*
b0000000000 +
b0010010 ,
1-
#269
0-
#270
b0000000000010001 %
b1101111101 &
b0100100 ,
1-
#271
0-
#272
b0000000000010000 %
b1101111100 &
1*
b0000000001 +
b1001001 ,
1-
#273
0-
#274
b0000000000001111 %
b1101111011 &
b0010011 ,
1-
#275
0-
#276
b0000000000001110 %
b1101111010 &
0*
b0000000000 +
b0100110 ,
1-
#277
0-
#278
b0000000000001101 %
b1101111001 &
1*
b0000000001 +
b1001101 ,
1-
#279
0-
#280
b0000000000001100 %
b1101111000 &
0*
b0000000000 +
b0011010 ,
1-
#281
0-
#282
b0000000000001011 %
b1101110111 &
b0110100 ,
1-
#283
0-
#284
b0000000000001010 %
b1101110110 &
1*
b0000000001 +
b1101001 ,
1-
#285
0-
#286
b0000000000001001 %
b1101110101 &
b1010011 ,
1-
#287
0-
#288
b0000000000001000 %
b1101110100 &
b0100111 ,
1-
#289
0-
#290
b0000000000000111 %
b1101110011 &
b1001111 ,
1-
#291
0-
#292
b0000000000000110 %
b1101110010 &
0*
b0000000000 +
b0011110 ,
1-
#293
0-
#294
b0000000000000101 %
b1101110001 &
1*
b0000000001 +
b0111101 ,
1-
#295
0-
#296
b0000000000000100 %
b1101110000 &
b1111011 ,
1-
#297
0-
#298
b0000000000000011 %
b1101101111 &
b1110111 ,
1-
#299
0-
#300
b0000000000000010 %
b1101101110 &
0*
b0000000000 +
b1101110 ,
1-
#301
0-
#302
b0000000000000001 %
b1101101101 &
b1011100 ,
1-
#303
0-
#304
b0000000000000000 %
b1101101100 &
b0111000 ,
1-
#305
0-
#306
1#
b0000000000011000 %
b1101101011 &
b1110000 ,
1-
12
b00000000000000000000000000000001 5
#307
0-
#308
0#
b0000000000010111 %
b1101101010 &
1*
b0000000001 +
b1100001 ,
1-
02
b00000000000000000000000000000000 5
#309
0-
#310
b0000000000010110 %
b1101101001 &
b1000011 ,
1-
#311
0-
#312
b0000000000010101 %
b1101101000 &
b0000111 ,
1-
#313
0-
#314
b0000000000010100 %
b1101100111 &
b0001111 ,
1-
#315
0-
#316
b0000000000010011 %
b1101100110 &
b0011111 ,
1-
#317
0-
#318
b0000000000010010 %
b1101100101 &
b0111111 ,
1-
#319
0-
#320
b0000000000010001 %
b1101100100 &
b1111111 ,
1-
#321
0-
#322
b0000000000010000 %
b1101100011 &
0*
b0000000000 +
b1111110 ,
1-
1.
#323
0-
#324
b0000000000001111 %
b1101100010 &
b1111100 ,
1-
0.
#325
0-
#326
b0000000000001110 %
b1101100001 &
b1111000 ,
1-
#327
0-
#328
b0000000000001101 %
b1101100000 &
1*
b0000000001 +
b1110001 ,
1-
#329
0-
#330
b0000000000001100 %
b1101011111 &
b1100011 ,
1-
#331
0-
#332
b0000000000001011 %
b1101011110 &
b1000111 ,
1-
#333
0-
#334
b0000000000001010 %
b1101011101 &
0*
b0000000000 +
b0001110 ,
1-
#335
0-
#336
b0000000000001001 %
b1101011100 &
1*
b0000000001 +
b0011101 ,
1-
#337
0-
#338
b0000000000001000 %
b1101011011 &
b0111011 ,
1-
#339
0-
#340
b0000000000000111 %
b1101011010 &
0*
b0000000000 +
b1110110 ,
1-
#341
0-
#342
b0000000000000110 %
b1101011001 &
b1101100 ,
1-
#343
0-
#344
b0000000000000101 %
b1101011000 &
b1011000 ,
1-
#345
0-
#346
b0000000000000100 %
b1101010111 &
1*
b0000000001 +
b0110001 ,
1-
#347
0-
#348
b0000000000000011 %
b1101010110 &
0*
b0000000000 +
b1100010 ,
1-
#349
0-
#350
b0000000000000010 %
b1101010101 &
1*
b0000000001 +
b1000101 ,
1-
#351
0-
#352
b0000000000000001 %
b1101010100 &
0*
b0000000000 +
b0001010 ,
1-
#353
0-
#354
b0000000000000000 %
b1101010011 &
b0010100 ,
1-
#355
0-
#356
1#
b0000000000011000 %
b1101010010 &
1*
b0000000001 +
b0101001 ,
1-
12
b00000000000000000000000000000001 5
#357
0-
#358
0#
b0000000000010111 %
b1101010001 &
0*
b0000000000 +
b1010010 ,
1-
1.
02
b00000000000000000000000000000000 5
#359
0-
#360
b0000000000010110 %
b1101010000 &
1*
b0000000001 +
b0100101 ,
1-
0.
#361
0-
#362
b0000000000010101 %
b1101001111 &
b1001011 ,
1-
#363
0-
#364
b0000000000010100 %
b1101001110 &
b0010111 ,
1-
#365
0-
#366
b0000000000010011 %
b1101001101 &
b0101111 ,
1-
#367
0-
#368
b0000000000010010 %
b1101001100 &
b1011111 ,
1-
#369
0-
#370
b0000000000010001 %
b1101001011 &
0*
b0000000000 +
b0111110 ,
1-
#371
0-
#372
b0000000000010000 %
b1101001010 &
1*
b0000000001 +
b1111101 ,
1-
#373
0-
#374
b0000000000001111 %
b1101001001 &
0*
b0000000000 +
b1111010 ,
1-
#375
0-
#376
b0000000000001110 %
b1101001000 &
1*
b0000000001 +
b1110101 ,
1-
#377
0-
#378
b0000000000001101 %
b1101000111 &
0*
b0000000000 +
b1101010 ,
1-
#379
0-
#380
b0000000000001100 %
b1101000110 &
1*
b0000000001 +
b1010101 ,
1-
#381
0-
#382
b0000000000001011 %
b1101000101 &
0*
b0000000000 +
b0101010 ,
1-
#383
0-
#384
b0000000000001010 %
b1101000100 &
b1010100 ,
1-
#385
0-
#386
b0000000000001001 %
b1101000011 &
b0101000 ,
1-
#387
0-
#388
b0000000000001000 %
b1101000010 &
b1010000 ,
1-
1.
#389
0-
#390
b0000000000000111 %
b1101000001 &
1*
b0000000001 +
b0100001 ,
1-
0.
#391
0-
#392
b0000000000000110 %
b1101000000 &
0*
b0000000000 +
b1000010 ,
1-
#393
0-
#394
b0000000000000101 %
b1100111111 &
1*
b0000000001 +
b0000101 ,
1-
#395
0-
#396
b0000000000000100 %
b1100111110 &
b0001011 ,
1-
#397
0-
#398
b0000000000000011 %
b1100111101 &
0*
b0000000000 +
b0010110 ,
1-
#399
0-
#400
b0000000000000010 %
b1100111100 &
1*
b0000000001 +
b0101101 ,
1-
#401
0-
#402
b0000000000000001 %
b1100111011 &
b1011011 ,
1-
#403
0-
#404
b0000000000000000 %
b1100111010 &
b0110111 ,
1-
#405
0-
#406
1#
b0000000000011000 %
b1100111001 &
b1101111 ,
1-
12
b00000000000000000000000000000001 5
#407
0-
#408
0#
b0000000000010111 %
b1100111000 &
0*
b0000000000 +
b1011110 ,
1-
02
b00000000000000000000000000000000 5
#409
0-
#410
b0000000000010110 %
b1100110111 &
b0111100 ,
1-
#411
0-
#412
b0000000000010101 %
b1100110110 &
1*
b0000000001 +
b1111001 ,
1-
#413
0-
#414
b0000000000010100 %
b1100110101 &
b1110011 ,
1-
#415
0-
#416
b0000000000010011 %
b1100110100 &
b1100111 ,
1-
#417
0-
#418
b0000000000010010 %
b1100110011 &
0*
b0000000000 +
b1001110 ,
1-
1.
#419
0-
#420
b0000000000010001 %
b1100110010 &
b0011100 ,
1-
0.
#421
0-
#422
b0000000000010000 %
b1100110001 &
1*
b0000000001 +
b0111001 ,
1-
#423
0-
#424
b0000000000001111 %
b1100110000 &
0*
b0000000000 +
b1110010 ,
1-
#425
0-
#426
b0000000000001110 %
b1100101111 &
1*
b0000000001 +
b1100101 ,
1-
#427
0-
#428
b0000000000001101 %
b1100101110 &
0*
b0000000000 +
b1001010 ,
1-
#429
0-
#430
b0000000000001100 %
b1100101101 &
1*
b0000000001 +
b0010101 ,
1-
#431
0-
#432
b0000000000001011 %
b1100101100 &
b0101011 ,
1-
#433
0-
#434
b0000000000001010 %
b1100101011 &
0*
b0000000000 +
b1010110 ,
1-
#435
0-
#436
b0000000000001001 %
b1100101010 &
b0101100 ,
1-
#437
0-
#438
b0000000000001000 %
b1100101001 &
1*
b0000000001 +
b1011001 ,
1-
#439
0-
#440
b0000000000000111 %
b1100101000 &
b0110011 ,
1-
#441
0-
#442
b0000000000000110 %
b1100100111 &
0*
b0000000000 +
b1100110 ,
1-
#443
0-
#444
b0000000000000101 %
b1100100110 &
b1001100 ,
1-
#445
0-
#446
b0000000000000100 %
b1100100101 &
b0011000 ,
1-
#447
0-
#448
b0000000000000011 %
b1100100100 &
b0110000 ,
1-
1.
#449
0-
#450
b0000000000000010 %
b1100100011 &
b1100000 ,
1-
0.
#451
0-
#452
b0000000000000001 %
b1100100010 &
1*
b0000000001 +
b1000001 ,
1-
#453
0-
#454
b0000000000000000 %
b1100100001 &
b0000011 ,
1-
#455
0-
#456
1#
b0000000000011000 %
b1100100000 &
0*
b0000000000 +
b0000110 ,
1-
12
b00000000000000000000000000000001 5
#457
0-
#458
0#
b0000000000010111 %
b1100011111 &
1*
b0000000001 +
b0001101 ,
1-
02
b00000000000000000000000000000000 5
#459
0-
#460
b0000000000010110 %
b1100011110 &
b0011011 ,
1-
#461
0-
#462
b0000000000010101 %
b1100011101 &
0*
b0000000000 +
b0110110 ,
1-
#463
0-
#464
b0000000000010100 %
b1100011100 &
1*
b0000000001 +
b1101101 ,
1-
#465
0-
#466
b0000000000010011 %
b1100011011 &
0*
b0000000000 +
b1011010 ,
1-
#467
0-
#468
b0000000000010010 %
b1100011010 &
1*
b0000000001 +
b0110101 ,
1-
#469
0-
#470
b0000000000010001 %
b1100011001 &
b1101011 ,
1-
#471
0-
#472
b0000000000010000 %
b1100011000 &
b1010111 ,
1-
#473
0-
#474
b0000000000001111 %
b1100010111 &
0*
b0000000000 +
b0101110 ,
1-
#475
0-
#476
b0000000000001110 %
b1100010110 &
1*
b0000000001 +
b1011101 ,
1-
#477
0-
#478
b0000000000001101 %
b1100010101 &
0*
b0000000000 +
b0111010 ,
1-
#479
0-
#480
b0000000000001100 %
b1100010100 &
b1110100 ,
1-
1.
#481
0-
#482
b0000000000001011 %
b1100010011 &
b1101000 ,
1-
0.
#483
0-
#484
b0000000000001010 %
b1100010010 &
1*
b0000000001 +
b1010001 ,
1-
#485
0-
#486
b0000000000001001 %
b1100010001 &
b0100011 ,
1-
#487
0-
#488
b0000000000001000 %
b1100010000 &
0*
b0000000000 +
b1000110 ,
1-
#489
0-
#490
b0000000000000111 %
b1100001111 &
b0001100 ,
1-
#491
0-
#492
b0000000000000110 %
b1100001110 &
1*
b0000000001 +
b0011001 ,
1-
#493
0-
#494
b0000000000000101 %
b1100001101 &
0*
b0000000000 +
b0110010 ,
1-
#495
0-
#496
b0000000000000100 %
b1100001100 &
b1100100 ,
1-
#497
0-
#498
b0000000000000011 %
b1100001011 &
b1001000 ,
1-
#499
0-
#500
b0000000000000010 %
b1100001010 &
1*
b0000000001 +
b0010001 ,
1-
#501
0-
#502
b0000000000000001 %
b1100001001 &
0*
b0000000000 +
b0100010 ,
1-
#503
0-
#504
b0000000000000000 %
b1100001000 &
b1000100 ,
1-
#505
0-
#506
1#
b0000000000011000 %
b1100000111 &
b0001000 ,
1-
12
b00000000000000000000000000000001 5
#507
0-
#508
0#
b0000000000010111 %
b1100000110 &
b0010000 ,
1-
02
b00000000000000000000000000000000 5
#509
0-
#510
b0000000000010110 %
b1100000101 &
b0100000 ,
1-
#511
0-
#512
b0000000000010101 %
b1100000100 &
b1000000 ,
1-
#513
0-
#514
b0000000000010100 %
b1100000011 &
1*
b0000000001 +
b0000001 ,
1-
1.
#515
0-
#516
b0000000000010011 %
b1100000010 &
0*
b0000000000 +
b0000010 ,
1-
0.
#517
0-
#518
b0000000000010010 %
b1100000001 &
b0000100 ,
1-
#519
0-
#520
b0000000000010001 %
b1100000000 &
1*
b0000000001 +
b0001001 ,
1-
#521
0-
#522
b0000000000010000 %
b1011111111 &
0*
b0000000000 +
b0010010 ,
1-
#523
0-
#524
b0000000000001111 %
b1011111110 &
b0100100 ,
1-
#525
0-
#526
b0000000000001110 %
b1011111101 &
1*
b0000000001 +
b1001001 ,
1-
#527
0-
#528
b0000000000001101 %
b1011111100 &
b0010011 ,
1-
#529
0-
#530
b0000000000001100 %
b1011111011 &
0*
b0000000000 +
b0100110 ,
1-
#531
0-
#532
b0000000000001011 %
b1011111010 &
1*
b0000000001 +
b1001101 ,
1-
#533
0-
#534
b0000000000001010 %
b1011111001 &
0*
b0000000000 +
b0011010 ,
1-
#535
0-
#536
b0000000000001001 %
b1011111000 &
b0110100 ,
1-
#537
0-
#538
b0000000000001000 %
b1011110111 &
1*
b0000000001 +
b1101001 ,
1-
#539
0-
#540
b0000000000000111 %
b1011110110 &
b1010011 ,
1-
#541
0-
#542
b0000000000000110 %
b1011110101 &
b0100111 ,
1-
#543
0-
#544
b0000000000000101 %
b1011110100 &
b1001111 ,
1-
#545
0-
#546
b0000000000000100 %
b1011110011 &
0*
b0000000000 +
b0011110 ,
1-
#547
0-
#548
b0000000000000011 %
b1011110010 &
1*
b0000000001 +
b0111101 ,
1-
#549
0-
#550
b0000000000000010 %
b1011110001 &
b1111011 ,
1-
#551
0-
#552
b0000000000000001 %
b1011110000 &
b1110111 ,
1-
#553
0-
#554
b0000000000000000 %
b1011101111 &
0*
b0000000000 +
b1101110 ,
1-
#555
0-
#556
1#
b0000000000011000 %
b1011101110 &
b1011100 ,
1-
12
b00000000000000000000000000000001 5
#557
0-
#558
0#
b0000000000010111 %
b1011101101 &
b0111000 ,
1-
02
b00000000000000000000000000000000 5
#559
0-
#560
b0000000000010110 %
b1011101100 &
b1110000 ,
1-
#561
0-
#562
b0000000000010101 %
b1011101011 &
1*
b0000000001 +
b1100001 ,
1-
#563
0-
#564
b0000000000010100 %
b1011101010 &
b1000011 ,
1-
#565
0-
#566
b0000000000010011 %
b1011101001 &
b0000111 ,
1-
#567
0-
#568
b0000000000010010 %
b1011101000 &
b0001111 ,
1-
#569
0-
#570
b0000000000010001 %
b1011100111 &
b0011111 ,
1-
#571
0-
#572
b0000000000010000 %
b1011100110 &
b0111111 ,
1-
#573
0-
#574
b0000000000001111 %
b1011100101 &
b1111111 ,
1-
#575
0-
#576
b0000000000001110 %
b1011100100 &
0*
b0000000000 +
b1111110 ,
1-
#577
0-
#578
b0000000000001101 %
b1011100011 &
b1111100 ,
1-
#579
0-
#580
b0000000000001100 %
b1011100010 &
b1111000 ,
1-
#581
0-
#582
b0000000000001011 %
b1011100001 &
1*
b0000000001 +
b1110001 ,
1-
#583
0-
#584
b0000000000001010 %
b1011100000 &
b1100011 ,
1-
#585
0-
#586
b0000000000001001 %
b1011011111 &
b1000111 ,
1-
#587
0-
#588
b0000000000001000 %
b1011011110 &
0*
b0000000000 +
b0001110 ,
1-
#589
0-
#590
b0000000000000111 %
b1011011101 &
1*
b0000000001 +
b0011101 ,
1-
#591
0-
#592
b0000000000000110 %
b1011011100 &
b0111011 ,
1-
#593
0-
#594
b0000000000000101 %
b1011011011 &
0*
b0000000000 +
b1110110 ,
1-
#595
0-
#596
b0000000000000100 %
b1011011010 &
b1101100 ,
1-
#597
0-
#598
b0000000000000011 %
b1011011001 &
b1011000 ,
1-
#599
0-
#600
b0000000000000010 %
b1011011000 &
1*
b0000000001 +
b0110001 ,
1-
#601
0-
#602
b0000000000000001 %
b1011010111 &
0*
b0000000000 +
b1100010 ,
1-
#603
0-
#604
b0000000000000000 %
b1011010110 &
1*
b0000000001 +
b1000101 ,
1-
#605
0-
#606
1#
b0000000000011000 %
b1011010101 &
0*
b0000000000 +
b0001010 ,
1-
12
b00000000000000000000000000000001 5
#607
0-
#608
0#
b0000000000010111 %
b1011010100 &
b0010100 ,
1-
02
b00000000000000000000000000000000 5
#609
0-
#610
b0000000000010110 %
b1011010011 &
1*
b0000000001 +
b0101001 ,
1-
#611
0-
